{"collection":[{"avatar_url":"http://a1.sndcdn.com/images/default_avatar_large.png?1505997153","city":null,"comments_count":0,"country_code":null,"created_at":"2016-03-14T09:49:26Z","creator_subscriptions":[{"product":{"id":"creator-pro-unlimited","name":"Pro Unlimited"},"recurring":false,"hug":false}],"creator_subscription":null,"description":null,"followers_count":51,"followings_count":0,"first_name":"","full_name":"","groups_count":0,"id":212041354,"kind":"user","last_modified":"2016-03-25T20:47:49Z","last_name":"","likes_count":0,"permalink":"tomcruiseofficial","permalink_url":"https://soundcloud.com/tomcruiseofficial","playlist_count":0,"reposts_count":null,"track_count":5,"uri":"https://api.soundcloud.com/users/212041354","urn":"soundcloud:users:212041354","username":"Tom Cruise","verified":false,"visuals":null},{"avatar_url":"https://i1.sndcdn.com/avatars-000066237505-a88igh-large.jpg","city":null,"comments_count":0,"country_code":null,"created_at":"2014-01-15T02:20:33Z","creator_subscriptions":[{"product":{"id":"free","name":"Free"},"recurring":false,"hug":false}],"creator_subscription":null,"description":null,"followers_count":12,"followings_count":0,"first_name":"Tom","full_name":"Tom Cruise","groups_count":0,"id":75232511,"kind":"user","last_modified":"2014-05-10T19:38:59Z","last_name":"Cruise","likes_count":0,"permalink":"tom-cruise-8","permalink_url":"https://soundcloud.com/tom-cruise-8","playlist_count":0,"reposts_count":null,"track_count":14,"uri":"https://api.soundcloud.com/users/75232511","urn":"soundcloud:users:75232511","username":"Tom Cruise 6","verified":false,"visuals":null},{"avatar_url":"https://i1.sndcdn.com/avatars-000007968494-pn1i12-large.jpg","city":null,"comments_count":2,"country_code":null,"created_at":"2011-12-07T22:20:46Z","creator_subscriptions":[{"product":{"id":"free","name":"Free"},"recurring":false,"hug":false}],"creator_subscription":null,"description":null,"followers_count":126,"followings_count":0,"first_name":"Tom","full_name":"Tom Cruise","groups_count":0,"id":9588901,"kind":"user","last_modified":"2013-05-17T21:21:02Z","last_name":"Cruise","likes_count":0,"permalink":"tomcruiseprofile","permalink_url":"https://soundcloud.com/tomcruiseprofile","playlist_count":0,"reposts_count":null,"track_count":0,"uri":"https://api.soundcloud.com/users/9588901","urn":"soundcloud:users:9588901","username":"Tom Cruise 1","verified":false,"visuals":null},{"avatar_url":"https://i1.sndcdn.com/avatars-000004664808-53hx3h-large.jpg","city":"Beaumont","comments_count":0,"country_code":"US","created_at":"2011-07-03T05:54:58Z","creator_subscriptions":[{"product":{"id":"free","name":"Free"},"recurring":false,"hug":false}],"creator_subscription":null,"description":null,"followers_count":60,"followings_count":0,"first_name":"tom","full_name":"tom cruise","groups_count":0,"id":5723383,"kind":"user","last_modified":"2011-07-09T21:03:45Z","last_name":"cruise","likes_count":0,"permalink":"glitch409","permalink_url":"https://soundcloud.com/glitch409","playlist_count":0,"reposts_count":null,"track_count":0,"uri":"https://api.soundcloud.com/users/5723383","urn":"soundcloud:users:5723383","username":"Glitch409","verified":false,"visuals":null},{"avatar_url":"https://i1.sndcdn.com/avatars-000045331228-gtd19q-large.jpg","city":null,"comments_count":0,"country_code":null,"created_at":"2013-06-21T12:18:23Z","creator_subscriptions":[{"product":{"id":"free","name":"Free"},"recurring":false,"hug":false}],"creator_subscription":null,"description":null,"followers_count":2,"followings_count":0,"first_name":"Tom Cruise","full_name":"Tom Cruise Putcha","groups_count":0,"id":48720357,"kind":"user","last_modified":"2013-06-21T12:18:24Z","last_name":"Putcha","likes_count":0,"permalink":"tom-cruise-putcha","permalink_url":"https://soundcloud.com/tom-cruise-putcha","playlist_count":0,"reposts_count":null,"track_count":4,"uri":"https://api.soundcloud.com/users/48720357","urn":"soundcloud:users:48720357","username":"Tom Cruise Putcha","verified":false,"visuals":null},{"avatar_url":"https://i1.sndcdn.com/avatars-000259597565-hrzv0k-large.jpg","city":"No","comments_count":0,"country_code":"AU","created_at":"2012-09-19T13:21:02Z","creator_subscriptions":[{"product":{"id":"free","name":"Free"},"recurring":false,"hug":false}],"creator_subscription":null,"description":null,"followers_count":3,"followings_count":0,"first_name":"Tom","full_name":"Tom Cruise","groups_count":0,"id":24462362,"kind":"user","last_modified":"2016-11-26T04:20:35Z","last_name":"Cruise","likes_count":0,"permalink":"dicklordsupreme","permalink_url":"https://soundcloud.com/dicklordsupreme","playlist_count":0,"reposts_count":null,"track_count":6,"uri":"https://api.soundcloud.com/users/24462362","urn":"soundcloud:users:24462362","username":"dicklordsupreme","verified":false,"visuals":null},{"avatar_url":"https://i1.sndcdn.com/avatars-000059409748-zmdwig-large.jpg","city":"Parts Unknown","comments_count":18,"country_code":"CA","created_at":"2013-11-02T10:39:17Z","creator_subscriptions":[{"product":{"id":"free","name":"Free"},"recurring":false,"hug":false}],"creator_subscription":null,"description":"\"I love what I do. I take great pride in what I do. And I can't do something halfway, three-quarters, nine-tenths. If I'm going to do something, I go all the way.\"-DjTomCruise\r\n","followers_count":254,"followings_count":1176,"first_name":"Tom","full_name":"Tom Cruise","groups_count":0,"id":64694507,"kind":"user","last_modified":"2014-08-09T08:28:57Z","last_name":"Cruise","likes_count":121,"permalink":"djtomcrooz","permalink_url":"https://soundcloud.com/djtomcrooz","playlist_count":0,"reposts_count":null,"track_count":3,"uri":"https://api.soundcloud.com/users/64694507","urn":"soundcloud:users:64694507","username":"DJTOMCRUISE","verified":false,"visuals":null},{"avatar_url":"https://i1.sndcdn.com/avatars-000059423982-crayw1-large.jpg","city":"Jakarta Capital Region","comments_count":16,"country_code":"ID","created_at":"2013-04-12T03:30:05Z","creator_subscriptions":[{"product":{"id":"free","name":"Free"},"recurring":false,"hug":false}],"creator_subscription":null,"description":null,"followers_count":54,"followings_count":41,"first_name":"Tom","full_name":"Tom Thomas","groups_count":0,"id":41642862,"kind":"user","last_modified":"2015-09-18T11:09:28Z","last_name":"Thomas","likes_count":88,"permalink":"tom-thomas-19","permalink_url":"https://soundcloud.com/tom-thomas-19","playlist_count":0,"reposts_count":null,"track_count":23,"uri":"https://api.soundcloud.com/users/41642862","urn":"soundcloud:users:41642862","username":"thomas cruise","verified":false,"visuals":null},{"avatar_url":"https://i1.sndcdn.com/avatars-000300821906-pfcco4-large.jpg","city":null,"comments_count":0,"country_code":null,"created_at":"2017-03-09T19:26:31Z","creator_subscriptions":[{"product":{"id":"free","name":"Free"},"recurring":false,"hug":false}],"creator_subscription":null,"description":null,"followers_count":3,"followings_count":0,"first_name":"","full_name":"","groups_count":0,"id":294102803,"kind":"user","last_modified":"2017-03-09T19:29:52Z","last_name":"","likes_count":0,"permalink":"tommcruise","permalink_url":"https://soundcloud.com/tommcruise","playlist_count":0,"reposts_count":null,"track_count":1,"uri":"https://api.soundcloud.com/users/294102803","urn":"soundcloud:users:294102803","username":"Tom Cruise","verified":false,"visuals":null},{"avatar_url":"https://i1.sndcdn.com/avatars-000082216245-9jrwjt-large.jpg","city":"","comments_count":0,"country_code":null,"created_at":"2014-04-24T10:11:47Z","creator_subscriptions":[{"product":{"id":"free","name":"Free"},"recurring":false,"hug":false}],"creator_subscription":null,"description":null,"followers_count":1,"followings_count":0,"first_name":"","full_name":"","groups_count":0,"id":91079984,"kind":"user","last_modified":"2014-06-10T22:45:08Z","last_name":"","likes_count":0,"permalink":"tom-cruise-de-vierde","permalink_url":"https://soundcloud.com/tom-cruise-de-vierde","playlist_count":0,"reposts_count":null,"track_count":1,"uri":"https://api.soundcloud.com/users/91079984","urn":"soundcloud:users:91079984","username":"T o m C r u i s e","verified":false,"visuals":null}],"total_results":205,"next_href":"https://api-mobi.soundcloud.com/search/users?q=tom%20cruise&offset=10&query_urn=soundcloud%3Asearch%3Aab85d24f93624f9fbf9dbb4b78d5f918&limit=10","query_urn":"soundcloud:search:ab85d24f93624f9fbf9dbb4b78d5f918"}